Capítulo 5 Introdução ao Tidyverse | Introdução ao R
…
Com a função group_by() é possível agrupar por variáveis.

pais_tidy %>% 
  group_by(ano2, pais)

## # A tibble: 7,719 x 7
## # Groups:   ano2, pais [7,719]
##    pais              codigo continente date         ano valor ano2 
##    <fct>             <fct>  <fct>      <date>     <dbl> <dbl> <fct>
##  1 Afganistán         AF    AS         2014-09-07  1970   335 1970 
##  2 Albania            AL    EU         2014-09-08  1970   516 1970 
##  3 Alemania           DE    EU         2014-09-09  1970   505 1970 
##  4 Andorra            AD    EU         2014-09-10  1970   749 1970 
##  5 Angola             AO    AF         2014-09-11  1970   310 1970 
##  6 Anguila            AI    NA         2014-09-12  1970   348 1970 
##  7 Antártida          AQ    AN         2014-09-13  1970   249 1970 
##  8 Antigua y Barbuda  AG    NA         2014-09-14  1970   378 1970 
##  9 Arabia Saudita     SA    AS         2014-09-15  1970   325 1970 
## 10 Argelia            DZ    AF         2014-09-16  1970   329 1970 
## # … with 7,709 more rows

A função group_by() é muito útil quando utilizada juntamente com a função summarize(). Por exemplo, podemos agrupar (group_by) por continente e por país e depois realizar algumas funções com esses dados (summarize). Como a seguir:

pais_tidy %>% 
  group_by(continente, pais) %>% 
  summarize(total = sum(valor, na.rm = TRUE), 
            media_valor = mean(valor, na.rm = TRUE),
            min = min(valor, na.rm = TRUE),
            max = max(valor, na.rm = TRUE))

## `summarise()` regrouping output by 'continente' (override with `.groups` argument)

## # A tibble: 249 x 6
## # Groups:   continente [7]
##    continente pais         total media_valor   min   max
##    <fct>      <fct>        <dbl>       <dbl> <dbl> <dbl>
##  1 AF         Angola       14466        482.   223   794
##  2 AF         Argelia      16247        524.   200   774
##  3 AF         Benín        14577        470.   205   775
##  4 AF         Botsuana     15499        500.   222   798
##  5 AF         Burkina Faso 15492        500.   208   771
##  6 AF         Burundi      17365        560.   240   800
##  7 AF         Cabo Verde   14946        482.   205   791
##  8 AF         Camerún      16315        526.   203   800
##  9 AF         Chad         17738        572.   205   779
## 10 AF         Comoras      16829        543.   237   799
## # … with 239 more rows

Note que a função summarize() acima agrega as funções sum(), mean(), min() e max() e que é necessário utilizar o argumento na.rm em todas elas.

Por fim, a função top_n() apresenta o(s) n maiores valor(es) da variável desejada. Por exemplo, se quisermos o maior valor de cada país agrupamos por pais e depois pedimos o valor 1 da variável valor na função top_n():

pais_tidy %>% 
   group_by(pais) %>% 
   top_n(1, valor)

## # A tibble: 255 x 7
## # Groups:   pais [249]
##    pais                           codigo continente date         ano valor ano2 
##    <fct>                          <fct>  <fct>      <date>     <dbl> <dbl> <fct>
##  1 Bahamas                         BS    NA         2014-08-30  1970   791 1970 
##  2 Congo, La República Democráti…  CD    AF         2015-10-12  1970   789 1970 
##  3 Guatemala                       GT    NA         2015-10-17  1970   785 1970 
##  4 Guernsey                        GG    EU         2017-06-20  1970   779 1970 
##  5 Guinea-Bisáu                    GW    AF         2017-06-21  1970   792 1970 
##  6 Irán, República Islámica de     IR    AS         2017-07-02  1970   792 1970 
##  7 Letonia                         LV    EU         2014-10-13  1970   793 1970 
##  8 Liberia                         LR    AF         2018-01-16  1970   785 1970 
##  9 Nabimia                         NA    AF         2017-04-25  1970   794 1970 
## 10 San Marino                      SM    EU         2018-02-10  1970   786 1970 
## # … with 245 more rows
…
